wave.vcd
$date
	Tue Dec 28 00:43:56 2021
$end
$version
	Icarus Verilog
$end
$timescale
	1ns
$end
$scope module top_bin $end
$var wire 1 ! c_rst $end
$var wire 1 " clk $end
$var wire 32 # data_high [31:0] $end
$var wire 32 $ data_low [31:0] $end
$var wire 1 % rst $end
$var wire 1 & w_en $end
$var wire 49 ' wgt [48:0] $end
$var wire 49 ( img [48:0] $end
$var wire 7 ) be_out [6:0] $end
$scope begin pack_img_wgt[0] $end
$scope begin genblk2 $end
$upscope $end
$upscope $end
$scope begin pack_img_wgt[1] $end
$scope begin genblk2 $end
$upscope $end
$upscope $end
$scope begin pack_img_wgt[2] $end
$scope begin genblk2 $end
$upscope $end
$upscope $end
$scope begin pack_img_wgt[3] $end
$scope begin genblk2 $end
$upscope $end
$upscope $end
$scope begin pack_img_wgt[4] $end
$scope begin genblk3 $end
$upscope $end
$upscope $end
$scope begin pack_img_wgt[5] $end
$scope begin genblk3 $end
$upscope $end
$upscope $end
$scope begin pack_img_wgt[6] $end
$scope begin genblk3 $end
$upscope $end
$upscope $end
$scope module BE0 $end
$var wire 1 ! c_rst $end
$var wire 1 " clk $end
$var wire 49 * img [48:0] $end
$var wire 193 + lookup_popcnt [192:0] $end
$var wire 1 % rst $end
$var wire 49 , w [48:0] $end
$var wire 1 & w_en $end
$var wire 49 - x_out [48:0] $end
$var wire 7 . lut_in_origin [6:0] $end
$var wire 6 / lut_in [5:0] $end
$var wire 4 0 intern [3:0] $end
$var reg 3 1 count [2:0] $end
$var reg 5 2 popcnt [4:0] $end
$var reg 7 3 popcnt_add [6:0] $end
$scope module xnor0 $end
$var wire 7 4 img [6:0] $end
$var wire 7 5 w [6:0] $end
$var wire 7 6 x_out [6:0] $end
$var wire 7 7 img_cal [6:0] $end
$upscope $end
$scope module xnor1 $end
$var wire 7 8 img [6:0] $end
$var wire 7 9 w [6:0] $end
$var wire 7 : x_out [6:0] $end
$var wire 7 ; img_cal [6:0] $end
$upscope $end
$scope module xnor2 $end
$var wire 7 < img [6:0] $end
$var wire 7 = w [6:0] $end
$var wire 7 > x_out [6:0] $end
$var wire 7 ? img_cal [6:0] $end
$upscope $end
$scope module xnor3 $end
$var wire 7 @ img [6:0] $end
$var wire 7 A w [6:0] $end
$var wire 7 B x_out [6:0] $end
$var wire 7 C img_cal [6:0] $end
$upscope $end
$scope module xnor4 $end
$var wire 7 D img [6:0] $end
$var wire 7 E w [6:0] $end
$var wire 7 F x_out [6:0] $end
$var wire 7 G img_cal [6:0] $end
$upscope $end
$scope module xnor5 $end
$var wire 7 H img [6:0] $end
$var wire 7 I w [6:0] $end
$var wire 7 J x_out [6:0] $end
$var wire 7 K img_cal [6:0] $end
$upscope $end
$scope module xnor6 $end
$var wire 7 L img [6:0] $end
$var wire 7 M w [6:0] $end
$var wire 7 N x_out [6:0] $end
$var wire 7 O img_cal [6:0] $end
$upscope $end
$upscope $end
$upscope $end
$enddefinitions $end
#0
$dumpvars
b1000110 O
b1101101 N
b1010100 M
b1000110 L
b11000 K
b110011 J
b1010100 I
b11000 H
b1010100 G
b1111111 F
b1010100 E
b1010100 D
b1101 C
b100110 B
b1010100 A
b1101 @
b110110 ?
b11101 >
b1010100 =
b110110 <
b10010 ;
b111001 :
b1010100 9
b10010 8
b1000101 7
b1101110 6
b1010100 5
b1000101 4
b0 3
b101 2
b0 1
b101 0
b101110 /
b1101110 .
b1101101011001111111110100110001110101110011101110 -
b1010100101010010101001010100101010010101001010100 ,
b110101101100101100100011101100100011100011011010101100100011100011011010100011011010011010010001101100100011100011011010100011011010011010010001100011011010011010010001011010010001010001001000 +
b1000110001100010101000001101011011000100101000101 *
b0 )
b1000110001100010101000001101011011000100101000101 (
b1010100101010010101001010100101010010101001010100 '
z&
1%
b110010100011000110001010100 $
b1101011011000100101000101 #
1"
z!
$end
#5000
0"
#10000
0%
1"
#15000
0"
#20000
1"
#25000
0"
#30000
1&
1!
1"
#35000
0"
#40000
b100 2
b111001 /
b100 0
b101 )
b101 3
b111001 .
b1 1
1"
#45000
0"
#50000
b11101 /
b1001 )
b1001 3
b11101 .
b10 1
1"
#55000
0"
#60000
b11 2
b11 0
b100110 /
b1101 )
b1101 3
b100110 .
b11 1
1"
#65000
0"
#70000
b111 2
b111111 /
b111 0
b10000 )
b10000 3
b1111111 .
b100 1
1"
#75000
0"
#80000
b100 2
b110011 /
b100 0
b10111 )
b10111 3
b110011 .
b101 1
1"
#85000
0"
#90000
b101 2
b101101 /
b101 0
b11011 )
b11011 3
b1101101 .
b110 1
1"
#95000
0"
#100000
b0xxxx 2
bx /
bx 0
b100000 )
b100000 3
bx .
b111 1
1"
#105000
0"
#110000
0&
b101 2
b101 0
b101110 /
bx )
bx 3
b1101110 .
b0 1
1"
#115000
0"
#120000
b100 2
b111001 /
b100 0
b111001 .
b1 1
1"
#125000
0"
#130000
b11101 /
b11101 .
b10 1
1"
#135000
0"
#140000
b11 2
b11 0
b100110 /
b100110 .
b11 1
1"
#145000
0"
#150000
b111 2
b111111 /
b111 0
b1111111 .
b100 1
1"
#155000
0"
#160000
b100 2
b110011 /
b100 0
b110011 .
b101 1
1"
#165000
0"
#170000
b101 2
b101101 /
b101 0
b1101101 .
b110 1
1"
#175000
0"
#180000
b0xxxx 2
bx /
bx 0
bx .
b111 1
1"
#185000
0"
#190000
b101 2
b101 0
b101110 /
b1101110 .
b0 1
1"
#195000
0"
#200000
b100 2
b111001 /
b100 0
b111001 .
b1 1
1"
#205000
0"
#210000
b11101 /
b11101 .
b10 1
1"
#215000
0"
#220000
b11 2
b11 0
b100110 /
b100110 .
b11 1
1"
#225000
0"
#230000
b111 2
b111111 /
b111 0
b1111111 .
b100 1
1"
#235000
0"
#240000
b100 2
b110011 /
b100 0
b110011 .
b101 1
1"
#245000
0"
#250000
b101 2
b101101 /
b101 0
b1101101 .
b110 1
1"
#255000
0"
#260000
b0xxxx 2
bx /
bx 0
bx .
b111 1
1"
#265000
0"
#270000
b101 2
b101 0
b101110 /
b1101110 .
b0 1
1"
#275000
0"
#280000
b100 2
b111001 /
b100 0
b111001 .
b1 1
1"
#285000
0"
#290000
b11101 /
b11101 .
b10 1
1"
#295000
0"
#300000
b11 2
b11 0
b100110 /
b100110 .
b11 1
1"
#305000
0"
#310000
b111 2
b111111 /
b111 0
b1111111 .
b100 1
1"
#315000
0"
#320000
b100 2
b110011 /
b100 0
b110011 .
b101 1
1"
#325000
0"
#330000
b101 2
b101101 /
b101 0
b1101101 .
b110 1
1"
#335000
0"
#340000
b0xxxx 2
bx /
bx 0
bx .
b111 1
1"
#345000
0"
#350000
b101 2
b101 0
b101110 /
b1101110 .
b0 1
1"
#355000
0"
#360000
b100 2
b111001 /
b100 0
b111001 .
b1 1
1"
#365000
0"
#370000
b11101 /
b11101 .
b10 1
1"
#375000
0"
#380000
b11 2
b11 0
b100110 /
b100110 .
b11 1
1"
#385000
0"
#390000
b111 2
b111111 /
b111 0
b1111111 .
b100 1
1"
#395000
0"
#400000
b100 2
b110011 /
b100 0
b110011 .
b101 1
1"
#405000
0"
#410000
b101 2
b101101 /
b101 0
b1101101 .
b110 1
1"
#415000
0"
#420000
b0xxxx 2
bx /
bx 0
bx .
b111 1
1"
#425000
0"
#430000
b101 2
b101 0
b101110 /
b1101110 .
b0 1
1"
#435000
0"
#440000
b100 2
b111001 /
b100 0
b111001 .
b1 1
1"
#445000
0"
#450000
b11101 /
b11101 .
b10 1
1"
#455000
0"
#460000
b11 2
b11 0
b100110 /
b100110 .
b11 1
1"
#465000
0"
#470000
b111 2
b111111 /
b111 0
b1111111 .
b100 1
1"
#475000
0"
#480000
b100 2
b110011 /
b100 0
b110011 .
b101 1
1"
#485000
0"
#490000
b101 2
b101101 /
b101 0
b1101101 .
b110 1
1"
#495000
0"
#500000
b0xxxx 2
bx /
bx 0
bx .
b111 1
1"
#505000
0"
#510000
b101 2
b101 0
b101110 /
b1101110 .
b0 1
1"
#515000
0"
#520000
b100 2
b111001 /
b100 0
b111001 .
b1 1
1"
#525000
0"
#530000
b11101 /
b11101 .
b10 1
1"
#535000
0"
#540000
b11 2
b11 0
b100110 /
b100110 .
b11 1
1"
#545000
0"
#550000
b111 2
b111111 /
b111 0
b1111111 .
b100 1
1"
#555000
0"
#560000
b100 2
b110011 /
b100 0
b110011 .
b101 1
1"
#565000
0"
#570000
b101 2
b101101 /
b101 0
b1101101 .
b110 1
1"
#575000
0"
#580000
b0xxxx 2
bx /
bx 0
bx .
b111 1
1"
#585000
0"
#590000
b101 2
b101 0
b101110 /
b1101110 .
b0 1
1"
#595000
0"
#600000
b100 2
b111001 /
b100 0
b111001 .
b1 1
1"
#605000
0"
#610000
b11101 /
b11101 .
b10 1
1"
#615000
0"
#620000
b11 2
b11 0
b100110 /
b100110 .
b11 1
1"
#625000
0"
#630000
b111 2
b111111 /
b111 0
b1111111 .
b100 1
1"
#635000
0"
#640000
b100 2
b110011 /
b100 0
b110011 .
b101 1
1"
#645000
0"
#650000
b101 2
b101101 /
b101 0
b1101101 .
b110 1
1"
#655000
0"
#660000
b0xxxx 2
bx /
bx 0
bx .
b111 1
1"
#665000
0"
#670000
b101 2
b101 0
b101110 /
b1101110 .
b0 1
1"
#675000
0"
#680000
b100 2
b111001 /
b100 0
b111001 .
b1 1
1"
#685000
0"
#690000
b11101 /
b11101 .
b10 1
1"
#695000
0"
#700000
b11 2
b11 0
b100110 /
b100110 .
b11 1
1"
#705000
0"
#710000
b111 2
b111111 /
b111 0
b1111111 .
b100 1
1"
#715000
0"
#720000
b100 2
b110011 /
b100 0
b110011 .
b101 1
1"
#725000
0"
#730000
b101 2
b101101 /
b101 0
b1101101 .
b110 1
1"
#735000
0"
#740000
b0xxxx 2
bx /
bx 0
bx .
b111 1
1"
#745000
0"
#750000
b101 2
b101 0
b101110 /
b1101110 .
b0 1
1"
#755000
0"
#760000
b100 2
b111001 /
b100 0
b111001 .
b1 1
1"
#765000
0"
#770000
b11101 /
b11101 .
b10 1
1"
#775000
0"
#780000
b11 2
b11 0
b100110 /
b100110 .
b11 1
1"
#785000
0"
#790000
b111 2
b111111 /
b111 0
b1111111 .
b100 1
1"
#795000
0"
#800000
b100 2
b110011 /
b100 0
b110011 .
b101 1
1"
#805000
0"
#810000
b101 2
b101101 /
b101 0
b1101101 .
b110 1
1"
#815000
0"
#820000
b0xxxx 2
bx /
bx 0
bx .
b111 1
1"
#825000
0"
#830000
b101 2
b101 0
b101110 /
b1101110 .
b0 1
1"
#835000
0"
#840000
b100 2
b111001 /
b100 0
b111001 .
b1 1
1"
